[
  [
    1508803200000,
    5907.3,
    5770,
    5907.3,
    5731.5,
    5686.10374137
  ],
  [
    1508806800000,
    5770,
    5626.7,
    5850,
    5559,
    9546.26176043
  ],
  [
    1508810400000,
    5629.9,
    5616.4,
    5685.1,
    5537,
    5163.28161518
  ],
  [
    1508814000000,
    5613,
    5655.1,
    5684,
    5603.1,
    2094.54979951
  ],
  [
    1508817600000,
    5655,
    5629.1,
    5671.1,
    5572.6,
    1943.41199597
  ],
  [
    1508821200000,
    5629.1,
    5719.4,
    5722.9,
    5618.4,
    1946.74424888
  ],
  [
    1508824800000,
    5719.4,
    5707.3,
    5786.3,
    5695.3,
    3726.64599979
  ],
  [
    1508828400000,
    5707.1,
    5733.5,
    5755.7,
    5670,
    1022.20212108
  ],
  [
    1508832000000,
    5734.7,
    5694.7,
    5770,
    5660.4,
    1620.38106769
  ],
  [
    1508835600000,
    5694.6,
    5637.3,
    5720,
    5590.4,
    2742.79020545
  ],
  [
    1508839200000,
    5641.5,
    5699.5,
    5699.9,
    5630,
    1068.23802551
  ],
  [
    1508842800000,
    5696.2,
    5700.2,
    5719.9,
    5659.8,
    1112.86661136
  ],
  [
    1508846400000,
    5700.3,
    5625.1,
    5700.3,
    5550,
    2797.86385336
  ],
  [
    1508850000000,
    5625.1,
    5636.2,
    5686.9,
    5571.1,
    2107.45779053
  ],
  [
    1508853600000,
    5637.4,
    5636.8,
    5669.2,
    5598.1,
    1586.75191142
  ],
  [
    1508857200000,
    5636.8,
    5627.8,
    5667.6,
    5603.3,
    1727.80699457
  ],
  [
    1508860800000,
    5627.8,
    5715.2,
    5733,
    5627.8,
    2602.67956094
  ],
  [
    1508864400000,
    5715.2,
    5694.7,
    5725.2,
    5676.1,
    877.40055404
  ],
  [
    1508868000000,
    5694.7,
    5674.6,
    5717.4,
    5664,
    920.19179371
  ],
  [
    1508871600000,
    5674.7,
    5673.7,
    5674.7,
    5640.3,
    847.86806428
  ],
  [
    1508875200000,
    5673.8,
    5580,
    5673.8,
    5550,
    3534.27282006
  ],
  [
    1508878800000,
    5580,
    5457.7,
    5585.4,
    5457.6,
    5816.66578373
  ],
  [
    1508882400000,
    5457.7,
    5494.3,
    5534.4,
    5457.4,
    2344.81485793
  ],
  [
    1508886000000,
    5491.5,
    5510,
    5536,
    5469,
    1187.61585501
  ],
  [
    1508889600000,
    5510,
    5493,
    5520.2,
    5474.3,
    787.16671613
  ],
  [
    1508893200000,
    5493,
    5385.4,
    5496,
    5374.1,
    4326.92990537
  ],
  [
    1508896800000,
    5385.5,
    5382.7,
    5439.9,
    5365.3,
    1890.62796584
  ],
  [
    1508900400000,
    5388,
    5547.9,
    5548,
    5382,
    2829.68340182
  ],
  [
    1508904000000,
    5547.9,
    5500,
    5568,
    5491.1,
    1463.39186135
  ],
  [
    1508907600000,
    5500,
    5483.3,
    5519.4,
    5457.3,
    1862.77415215
  ],
  [
    1508911200000,
    5483.4,
    5513.6,
    5532.5,
    5464.4,
    823.15064995
  ],
  [
    1508914800000,
    5513.7,
    5558.2,
    5588.8,
    5510.1,
    1317.79575235
  ],
  [
    1508918400000,
    5558.2,
    5594.9,
    5629.9,
    5556,
    2599.18098304
  ],
  [
    1508922000000,
    5595,
    5599.8,
    5618.4,
    5585,
    1321.38539632
  ],
  [
    1508925600000,
    5598.9,
    5538.5,
    5607.6,
    5520.5,
    1421.40869998
  ],
  [
    1508929200000,
    5539.7,
    5513.2,
    5547.2,
    5466.8,
    2243.50047303
  ],
  [
    1508932800000,
    5512.9,
    5497.1,
    5520,
    5417.1,
    2064.96527078
  ],
  [
    1508936400000,
    5497.1,
    5521,
    5538,
    5477.4,
    1090.03650398
  ],
  [
    1508940000000,
    5520.4,
    5477.1,
    5535.9,
    5472.5,
    1105.35837192
  ],
  [
    1508943600000,
    5477,
    5463.3,
    5477.1,
    5400,
    2399.18140984
  ],
  [
    1508947200000,
    5467,
    5509.1,
    5549,
    5456,
    2205.53996082
  ],
  [
    1508950800000,
    5509.1,
    5504.4,
    5541.6,
    5471.1,
    1163.15290039
  ],
  [
    1508954400000,
    5505.1,
    5543.1,
    5561.9,
    5501.1,
    1147.72238568
  ],
  [
    1508958000000,
    5543,
    5629.4,
    5644,
    5522,
    2436.70016751
  ],
  [
    1508961600000,
    5629.6,
    5668,
    5675,
    5616.5,
    2468.44491633
  ],
  [
    1508965200000,
    5667.9,
    5668,
    5697.1,
    5639,
    1797.78046732
  ],
  [
    1508968800000,
    5667,
    5664.9,
    5672.7,
    5617.1,
    1162.72751871
  ],
  [
    1508972400000,
    5665,
    5724.1,
    5746.9,
    5626.4,
    2896.74326758
  ],
  [
    1508976000000,
    5724.2,
    5716.9,
    5724.9,
    5682,
    1027.42023454
  ],
  [
    1508979600000,
    5717.1,
    5680.5,
    5747,
    5680,
    1170.84328141
  ],
  [
    1508983200000,
    5680.4,
    5726.5,
    5738,
    5667.5,
    893.33934571
  ],
  [
    1508986800000,
    5726.5,
    5763.9,
    5778,
    5711.9,
    1505.57225502
  ],
  [
    1508990400000,
    5762.4,
    5736.6,
    5769,
    5720,
    921.32528941
  ],
  [
    1508994000000,
    5736.9,
    5720.7,
    5755.5,
    5697.1,
    1038.49052132
  ],
  [
    1508997600000,
    5720.7,
    5730.6,
    5735,
    5680,
    1135.94941619
  ],
  [
    1509001200000,
    5730.5,
    5731.1,
    5735,
    5692.8,
    828.79735115
  ],
  [
    1509004800000,
    5731.2,
    5709.7,
    5733.8,
    5707.6,
    405.63855726
  ],
  [
    1509008400000,
    5709.6,
    5738.8,
    5755,
    5690.1,
    1605.70364258
  ],
  [
    1509012000000,
    5737.8,
    5739.3,
    5754,
    5715.2,
    1022.01881889
  ],
  [
    1509015600000,
    5739.4,
    5880.9,
    5881,
    5738.4,
    4733.38476149
  ],
  [
    1509019200000,
    5880.9,
    5930.7,
    5945,
    5870,
    4671.32941462
  ],
  [
    1509022800000,
    5931,
    5891.7,
    5966.6,
    5871,
    3828.65289174
  ],
  [
    1509026400000,
    5890.7,
    5917.7,
    5934.9,
    5880.3,
    1713.86253662
  ],
  [
    1509030000000,
    5917.6,
    5929.6,
    5950,
    5898.4,
    1266.44629494
  ],
  [
    1509033600000,
    5930.5,
    5920.9,
    5956,
    5906.6,
    1447.88917191
  ],
  [
    1509037200000,
    5921.4,
    5951.3,
    5958,
    5908.4,
    944.13129521
  ],
  [
    1509040800000,
    5951.3,
    5867.2,
    5951.4,
    5852,
    2952.97659089
  ],
  [
    1509044400000,
    5869.4,
    5895,
    5895,
    5808.9,
    2593.05488862
  ],
  [
    1509048000000,
    5894.7,
    5850,
    5909.9,
    5822.2,
    1592.7965977
  ],
  [
    1509051600000,
    5852.4,
    5820.2,
    5859.1,
    5791.4,
    1881.49377449
  ],
  [
    1509055200000,
    5820,
    5876.2,
    5917.6,
    5781.3,
    2669.01540079
  ],
  [
    1509058800000,
    5876.2,
    5890,
    5919,
    5876.1,
    874.14867603
  ],
  [
    1509062400000,
    5889.9,
    5998.9,
    6020,
    5881,
    4311.24975091
  ],
  [
    1509066000000,
    5999.9,
    5948.5,
    6000.7,
    5929,
    1853.24352832
  ],
  [
    1509069600000,
    5948.5,
    5925,
    5974.9,
    5917.4,
    954.05446036
  ],
  [
    1509073200000,
    5925.1,
    5925,
    5934.9,
    5889.4,
    1067.18742722
  ],
  [
    1509076800000,
    5924.7,
    5870.3,
    5930,
    5870,
    779.70520582
  ],
  [
    1509080400000,
    5870.7,
    5812.7,
    5899,
    5789,
    3771.03505728
  ],
  [
    1509084000000,
    5812.7,
    5835,
    5837.5,
    5773,
    1699.6772487
  ],
  [
    1509087600000,
    5834.8,
    5875.4,
    5886.5,
    5826.6,
    1327.8228499
  ],
  [
    1509091200000,
    5875.8,
    5879.7,
    5883.9,
    5847.9,
    806.5311432
  ],
  [
    1509094800000,
    5879.7,
    5894.9,
    5925.5,
    5869.6,
    1326.69887948
  ],
  [
    1509098400000,
    5895,
    5820.1,
    5905,
    5820,
    1681.22887765
  ],
  [
    1509102000000,
    5820.1,
    5825.2,
    5845,
    5813.4,
    1017.65826773
  ],
  [
    1509105600000,
    5828.5,
    5779,
    5832.4,
    5740.9,
    3222.52645602
  ],
  [
    1509109200000,
    5779.1,
    5747.7,
    5779.1,
    5685,
    3779.67157947
  ],
  [
    1509112800000,
    5748.8,
    5750.1,
    5789,
    5730.1,
    1538.31267342
  ],
  [
    1509116400000,
    5750.1,
    5750.1,
    5773.8,
    5710.3,
    1056.19275196
  ],
  [
    1509120000000,
    5750.1,
    5764.9,
    5808.8,
    5750,
    1142.68965076
  ],
  [
    1509123600000,
    5763.5,
    5720,
    5776.3,
    5712,
    1283.18511834
  ],
  [
    1509127200000,
    5719.9,
    5718.3,
    5744.7,
    5681,
    2770.38812871
  ],
  [
    1509130800000,
    5716.9,
    5735,
    5770,
    5710,
    1273.88043241
  ],
  [
    1509134400000,
    5735.1,
    5736.6,
    5749.9,
    5695.1,
    931.43000467
  ],
  [
    1509138000000,
    5736.7,
    5741.3,
    5790,
    5736.7,
    845.94917002
  ],
  [
    1509141600000,
    5741.3,
    5776.8,
    5786.5,
    5720.1,
    848.94914788
  ],
  [
    1509145200000,
    5771.8,
    5759.7,
    5772.9,
    5722.9,
    423.4659505
  ],
  [
    1509148800000,
    5759.8,
    5830.2,
    5842,
    5759.7,
    1651.57355478
  ],
  [
    1509152400000,
    5830.8,
    5811,
    5864,
    5805,
    1133.18850747
  ],
  [
    1509156000000,
    5811,
    5734.5,
    5825,
    5731,
    1522.56743856
  ],
  [
    1509159600000,
    5734.4,
    5708.9,
    5754,
    5700.1,
    1887.94606153
  ],
  [
    1509163200000,
    5708.8,
    5722.6,
    5748.8,
    5693.2,
    1192.4257221
  ],
  [
    1509166800000,
    5722.6,
    5765.6,
    5800,
    5719.2,
    1052.32619288
  ],
  [
    1509170400000,
    5766.5,
    5777.3,
    5780,
    5740,
    344.80409209
  ],
  [
    1509174000000,
    5777.4,
    5770.6,
    5786.2,
    5750.1,
    660.61322298
  ],
  [
    1509177600000,
    5770.5,
    5752.8,
    5770.8,
    5734.6,
    520.61265904
  ],
  [
    1509181200000,
    5752.9,
    5712.8,
    5766.9,
    5712.6,
    666.99333429
  ],
  [
    1509184800000,
    5712.8,
    5712.1,
    5767.6,
    5700.1,
    1358.87633345
  ],
  [
    1509188400000,
    5712.3,
    5673.8,
    5718.6,
    5632,
    3654.33939646
  ],
  [
    1509192000000,
    5673.5,
    5681.9,
    5693,
    5632.2,
    1563.6303221
  ],
  [
    1509195600000,
    5681.6,
    5714.3,
    5720,
    5657,
    1584.11304082
  ],
  [
    1509199200000,
    5713.3,
    5682.8,
    5729.9,
    5672.8,
    809.60806105
  ],
  [
    1509202800000,
    5682.4,
    5682.1,
    5694.6,
    5647.9,
    1003.06350767
  ],
  [
    1509206400000,
    5682.1,
    5694.9,
    5706.5,
    5674.5,
    486.44786265
  ],
  [
    1509210000000,
    5694.8,
    5718.3,
    5729.9,
    5678.9,
    591.77227591
  ],
  [
    1509213600000,
    5718.3,
    5733.1,
    5754,
    5705,
    758.75073178
  ],
  [
    1509217200000,
    5733.1,
    5766.3,
    5785,
    5718.3,
    1544.71606472
  ],
  [
    1509220800000,
    5766.1,
    5720.8,
    5778,
    5700.3,
    944.81406424
  ],
  [
    1509224400000,
    5722.2,
    5720,
    5739.8,
    5689.3,
    715.86237736
  ],
  [
    1509228000000,
    5720,
    5740,
    5748.9,
    5718,
    470.90157183
  ],
  [
    1509231600000,
    5738.8,
    5720.3,
    5749,
    5704.1,
    543.12519431
  ],
  [
    1509235200000,
    5719.7,
    5698.2,
    5719.7,
    5672.85444571,
    540.33797927
  ],
  [
    1509238800000,
    5695.4,
    5685.7,
    5710,
    5678.1,
    600.22032733
  ],
  [
    1509242400000,
    5687.6,
    5690,
    5706.9,
    5660,
    890.76418956
  ],
  [
    1509246000000,
    5689.9,
    5719.1,
    5733,
    5689.9,
    921.86880032
  ],
  [
    1509249600000,
    5719,
    5754.9,
    5775,
    5702.1,
    1394.83364712
  ],
  [
    1509253200000,
    5753.6,
    5766.1,
    5768,
    5735,
    334.2671729
  ],
  [
    1509256800000,
    5766.2,
    5795.9,
    5796.1,
    5743.3,
    623.99538985
  ],
  [
    1509260400000,
    5795.9,
    5811,
    5862.3,
    5789.9,
    3132.38243421
  ],
  [
    1509264000000,
    5811.2,
    5808.2,
    5824,
    5790,
    1084.59407544
  ],
  [
    1509267600000,
    5810.4,
    5767.6,
    5810.4,
    5760,
    703.85858623
  ],
  [
    1509271200000,
    5768.1,
    5782.2,
    5790,
    5760,
    1302.38079363
  ],
  [
    1509274800000,
    5781,
    5800,
    5849.2,
    5778,
    3842.19150381
  ],
  [
    1509278400000,
    5800.9,
    5775.1,
    5815,
    5775,
    1873.04075336
  ],
  [
    1509282000000,
    5775.1,
    5770,
    5786.8,
    5759.1,
    1051.13718731
  ]
]