Thu, 07 Dec 2017 02:33:03 GMT -> ENTER: null :: CLOSE: null
Thu, 07 Dec 2017 02:38:33 GMT -> ENTER: null :: CLOSE: null
Thu, 07 Dec 2017 02:44:38 GMT -> ENTER: short :: CLOSE: long
Thu, 07 Dec 2017 02:45:03 GMT -> ENTER: long :: CLOSE: short
Thu, 07 Dec 2017 02:46:51 GMT -> ENTER: long :: CLOSE: short
Thu, 07 Dec 2017 02:50:06 GMT -> ENTER: short :: CLOSE: long
Thu, 07 Dec 2017 02:52:04 GMT -> ENTER: short :: CLOSE: long
Thu, 07 Dec 2017 02:55:05 GMT -> ENTER: null :: CLOSE: null
Sat, 09 Dec 2017 23:30:39 GMT -> ENTER: null :: CLOSE: null
Sat, 09 Dec 2017 23:31:31 GMT -> ENTER: null :: CLOSE: null
Sat, 09 Dec 2017 23:35:25 GMT -> ENTER: null :: CLOSE: null
Sat, 09 Dec 2017 23:35:30 GMT -> ENTER: short :: CLOSE: long
Sat, 09 Dec 2017 23:36:56 GMT -> ENTER: null :: CLOSE: null
Sat, 09 Dec 2017 23:37:46 GMT -> ENTER: short :: CLOSE: long
Sat, 09 Dec 2017 23:38:01 GMT -> ENTER: null :: CLOSE: null
Sat, 09 Dec 2017 23:44:09 GMT -> ENTER: long :: CLOSE: short
Sat, 09 Dec 2017 23:46:39 GMT -> ENTER: null :: CLOSE: null
Sat, 09 Dec 2017 23:47:14 GMT -> ENTER: long :: CLOSE: short
Sat, 09 Dec 2017 23:49:08 GMT -> ENTER: long :: CLOSE: short
Sun, 10 Dec 2017 00:03:14 GMT -> ENTER: null :: CLOSE: null
Sun, 10 Dec 2017 00:03:16 GMT -> ENTER: short :: CLOSE: long
Sun, 10 Dec 2017 00:04:14 GMT -> ENTER: null :: CLOSE: null
Sun, 10 Dec 2017 00:10:23 GMT -> ENTER: short :: CLOSE: long
Sun, 10 Dec 2017 00:11:24 GMT -> ENTER: null :: CLOSE: null
Sun, 10 Dec 2017 00:11:30 GMT -> ENTER: short :: CLOSE: long
Sun, 10 Dec 2017 00:11:58 GMT -> ENTER: null :: CLOSE: null
Sun, 10 Dec 2017 00:12:08 GMT -> ENTER: short :: CLOSE: long
Sun, 10 Dec 2017 00:12:24 GMT -> ENTER: null :: CLOSE: null
Sun, 10 Dec 2017 00:12:40 GMT -> ENTER: short :: CLOSE: long
Sun, 10 Dec 2017 00:14:24 GMT -> ENTER: long :: CLOSE: short
Sun, 10 Dec 2017 00:15:46 GMT -> ENTER: short :: CLOSE: long
Sun, 10 Dec 2017 00:15:48 GMT -> ENTER: long :: CLOSE: short
Sun, 10 Dec 2017 00:15:52 GMT -> ENTER: short :: CLOSE: long
Sun, 10 Dec 2017 00:16:24 GMT -> ENTER: long :: CLOSE: short
Sun, 10 Dec 2017 00:18:27 GMT -> ENTER: short :: CLOSE: long
Sun, 10 Dec 2017 00:20:27 GMT -> ENTER: long :: CLOSE: short
Sun, 10 Dec 2017 00:20:29 GMT -> ENTER: null :: CLOSE: null
Sun, 10 Dec 2017 00:20:31 GMT -> ENTER: short :: CLOSE: long
Sun, 10 Dec 2017 00:21:01 GMT -> ENTER: long :: CLOSE: short
Sun, 10 Dec 2017 00:21:03 GMT -> ENTER: short :: CLOSE: long
Sun, 10 Dec 2017 00:21:09 GMT -> ENTER: long :: CLOSE: short
Sun, 10 Dec 2017 00:21:11 GMT -> ENTER: null :: CLOSE: null
Sun, 10 Dec 2017 00:21:15 GMT -> ENTER: long :: CLOSE: short
Sun, 10 Dec 2017 00:21:17 GMT -> ENTER: null :: CLOSE: null
Sun, 10 Dec 2017 00:21:21 GMT -> ENTER: long :: CLOSE: short
Sun, 10 Dec 2017 00:21:26 GMT -> ENTER: short :: CLOSE: long
Sun, 10 Dec 2017 00:22:46 GMT -> ENTER: long :: CLOSE: short
Sun, 10 Dec 2017 00:22:54 GMT -> ENTER: short :: CLOSE: long
Sun, 10 Dec 2017 00:24:57 GMT -> ENTER: null :: CLOSE: null
Sun, 10 Dec 2017 00:25:13 GMT -> ENTER: short :: CLOSE: long
Sun, 10 Dec 2017 00:25:35 GMT -> ENTER: null :: CLOSE: null
Sun, 10 Dec 2017 00:25:39 GMT -> ENTER: short :: CLOSE: long
Sun, 10 Dec 2017 00:25:43 GMT -> ENTER: null :: CLOSE: null
Sun, 10 Dec 2017 00:25:47 GMT -> ENTER: short :: CLOSE: long
Sun, 10 Dec 2017 00:25:53 GMT -> ENTER: null :: CLOSE: null
Sun, 10 Dec 2017 00:25:55 GMT -> ENTER: short :: CLOSE: long
Sun, 10 Dec 2017 00:33:16 GMT -> ENTER: null :: CLOSE: null
Sun, 10 Dec 2017 00:35:43 GMT -> ENTER: short :: CLOSE: long
Sun, 10 Dec 2017 00:47:11 GMT -> ENTER: null :: CLOSE: null
Sun, 10 Dec 2017 00:47:19 GMT -> ENTER: short :: CLOSE: long
Sun, 10 Dec 2017 00:47:27 GMT -> ENTER: null :: CLOSE: null
Sun, 10 Dec 2017 00:47:29 GMT -> ENTER: short :: CLOSE: long
Sun, 10 Dec 2017 00:47:41 GMT -> ENTER: null :: CLOSE: null
Sun, 10 Dec 2017 00:48:13 GMT -> ENTER: short :: CLOSE: long
Sun, 10 Dec 2017 00:48:45 GMT -> ENTER: null :: CLOSE: null
Sun, 10 Dec 2017 00:52:41 GMT -> ENTER: short :: CLOSE: long
Sun, 10 Dec 2017 00:53:17 GMT -> ENTER: long :: CLOSE: short
Sun, 10 Dec 2017 00:53:33 GMT -> ENTER: short :: CLOSE: long
Sun, 10 Dec 2017 00:58:00 GMT -> ENTER: null :: CLOSE: null
Sun, 10 Dec 2017 00:58:02 GMT -> ENTER: short :: CLOSE: long
Sun, 10 Dec 2017 01:09:42 GMT -> ENTER: null :: CLOSE: null
Sun, 10 Dec 2017 01:10:12 GMT -> ENTER: long :: CLOSE: short
Sun, 10 Dec 2017 01:10:18 GMT -> ENTER: null :: CLOSE: null
Sun, 10 Dec 2017 01:10:46 GMT -> ENTER: long :: CLOSE: short
Sun, 10 Dec 2017 01:11:10 GMT -> ENTER: null :: CLOSE: null
Tue, 12 Dec 2017 11:49:24 GMT -> ENTER: null :: CLOSE: long
Tue, 12 Dec 2017 11:52:18 GMT -> ENTER: null :: CLOSE: null
Tue, 12 Dec 2017 12:03:24 GMT -> ENTER: null :: CLOSE: null
Tue, 12 Dec 2017 12:03:26 GMT -> ENTER: long :: CLOSE: short
Tue, 12 Dec 2017 12:03:49 GMT -> ENTER: null :: CLOSE: null
Tue, 12 Dec 2017 12:26:02 GMT -> ENTER: null :: CLOSE: null
